14,14,14,14,14,14,14,14,14,14,14,14,14,14,14,14,14,14,14,14,
14,14,14,14,14,14,14,14,14,14,14,13,65,65,65,66,66,66,66,14,
14,65,65,65,14,65,65,65,65,13,14,13,65,65,65,65,66,66,66,14,
14,65,65,65,14,65,65,65,13,13,14,13,13,65,65,65,65,66,66,14,
14,65,65,65,90,65,65,65,13,13,90,13,13,65,65,65,65,65,66,14,
14,65,65,65,14,65,65,65,13,13,14,13,13,65,65,65,65,65,65,14,
14,65,65,65,14,65,65,13,13,13,14,13,13,13,65,65,65,65,65,14,
14,65,65,65,14,65,65,13,14,89,14,14,14,13,65,65,65,65,65,14,
14,65,65,65,14,14,89,14,14,66,66,66,14,13,65,65,65,65,65,14,
14,65,65,65,65,65,65,13,14,66,66,66,14,13,65,65,65,65,65,14,
14,65,65,65,65,65,65,13,14,14,14,89,14,13,65,65,65,65,65,14,
14,65,65,65,65,65,65,13,13,13,14,13,13,13,65,65,65,65,65,14,
14,65,65,65,65,65,65,65,13,13,14,13,13,65,65,65,65,65,65,14,
14,65,65,65,65,65,65,65,13,13,90,13,13,65,65,65,65,65,65,14,
14,65,65,65,65,65,65,65,13,13,14,13,13,65,65,65,65,65,65,14,
14,66,65,65,65,65,65,65,13,13,14,13,13,65,65,65,65,65,65,14,
14,66,66,65,65,65,65,65,13,13,14,13,13,65,65,65,65,65,65,14,
14,66,66,65,65,65,65,65,13,13,14,13,13,65,65,65,65,65,65,14,
14,66,66,65,65,65,65,65,65,13,90,13,65,65,65,65,65,65,65,14,
14,14,14,14,14,14,14,14,14,14,14,14,14,14,14,14,14,14,14,14